…
2.  Add the location of the **origin and destination (i.e. the lat and
    lon)** to flights.

``` r
a <- flights %>% inner_join(airports, by= c("dest" = "faa")) 
b <- a %>%  select("dest", "lon", "lat") %>% unique()
names(b) <- c("origin", "origin_lon", "origin_lat")
a %>% full_join(b, by = c("origin")) %>% rename("dest_lat" = "lat", "dest_lon" = "lon")
```

    ## # A tibble: 329,274 × 28
    ##     year month   day dep_time sched_dep_time dep_delay arr_time sched_arr_time
    ##    <int> <int> <int>    <int>          <int>     <dbl>    <int>          <int>
    ##  1  2013     1     1      517            515         2      830            819
    ##  2  2013     1     1      533            529         4      850            830
    ##  3  2013     1     1      542            540         2      923            850
    ##  4  2013     1     1      554            600        -6      812            837
    ##  5  2013     1     1      554            558        -4      740            728
    ##  6  2013     1     1      555            600        -5      913            854
    ##  7  2013     1     1      557            600        -3      709            723
    ##  8  2013     1     1      557            600        -3      838            846
    ##  9  2013     1     1      558            600        -2      753            745
    ## 10  2013     1     1      558            600        -2      849            851
    ## # … with 329,264 more rows, and 20 more variables: arr_delay <dbl>,
    ## #   carrier <chr>, flight <int>, tailnum <chr>, origin <chr>, dest <chr>,
    ## #   air_time <dbl>, distance <dbl>, hour <dbl>, minute <dbl>, time_hour <dttm>,
    ## #   name <chr>, dest_lat <dbl>, dest_lon <dbl>, alt <dbl>, tz <dbl>, dst <chr>,
    ## #   tzone <chr>, origin_lon <dbl>, origin_lat <dbl>
…
